{
  "hdmed": "UndertaleMediumCut.mp3",
  "airhorn": "mlg-airhorn.mp3",
  "item": "zelda-item.mp3",
  "parquet": "crawling.mp3",
  "annihilated": "annihilation.mp3",
  "boomshakalaka": "dvaBoomShakalaka.ogg",
  "easymode": "dvaEasyMode.ogg",
  "love": "dvaLove.ogg",
  "birthday": "happyBirthday.ogg",
  "nothearingit": "lucioNotHearingIt.ogg",
  "worktoohard": "lucioWorkTooHard.ogg",
  "justice": "pharahJustice.ogg",
  "seinfeld": "seinfeld.mp3",
  "ezaf": "EZAF.mp3",
  "chzaf": "CHZAF.mp3",
  "reminder": "reminder.mp3",
  "parses": "parses.mp3",
  "lidexia": "inTheEnd.mp3",
  "poop": "omgpoop.mp3",
  "disasta": "itsadisasta.mp3",
  "alldied": "allDied.oga",
  "caresdepleted": "caresDepleted.oga",
  "curb": "curb.mp3",
  "loot": "LootLong.mp3",
  "planet": "planet.mp3",
  "halp": "halp.mp3",
  "ayaya": "ayaya.mp3",
  "2ez": "2ez.mp3",
  "dont": "dont.mp3",
  "ttyrke": "ttyrke.mp3",
  "where": "where.mp3"
}
